Lab_4/Lab4.sim/sim_1/behav/xsim/chua_rng_sim.vcd
$date
   Fri Apr 18 15:44:03 2025
$end

$version
  2024.2.0
  $dumpfile ("chua_rng_sim.vcd") 
$end

$timescale
  1ps
$end

$scope module tb_chua_rng $end
$var reg 1 ! sysclk $end
$var reg 1 " rst $end
$var reg 12 # adc_data1 [11:0] $end
$var reg 12 $ adc_data2 [11:0] $end
$var wire 16 % rnd [15:0] $end
$scope module uut $end
$var wire 1 & sysclk $end
$var wire 1 ' rst $end
$var wire 12 ( adc_data1 [11:0] $end
$var wire 12 ) adc_data2 [11:0] $end
$var reg 16 * rnd [15:0] $end
$var wire 32 + seed_c1 [31:0] $end
$var wire 32 , seed_c2 [31:0] $end
$var wire 32 - C1_seed [31:0] $end
$var wire 32 . C2_seed [31:0] $end
$var reg 32 / v1 [31:0] $end
$var reg 32 0 v2 [31:0] $end
$var reg 32 1 iL [31:0] $end
$var reg 32 2 dv1 [31:0] $end
$var reg 32 3 dv2 [31:0] $end
$var reg 32 4 diL [31:0] $end
$var reg 32 5 diff [31:0] $end
$var reg 32 6 term [31:0] $end
$var reg 32 7 inv_C1 [31:0] $end
$var reg 32 8 inv_C2 [31:0] $end
$var reg 32 9 inv_L [31:0] $end
$var reg 16 : burn_cnt [15:0] $end
$var reg 1 ; seeded $end
$var reg 64 < temp_dv1 [63:0] $end
$var reg 64 = temp_dv2 [63:0] $end
$var reg 64 > temp_diL [63:0] $end
$scope function nonlinear $end
$var reg 32 ? nonlinear [31:0] $end
$var reg 32 @ x [31:0] $end
$upscope $end
$upscope $end
$scope begin Block33_2 $end
$var integer 32 A i [31:0] $end
$upscope $end
$upscope $end
$enddefinitions $end

#0
$dumpvars
0!
0"
b0 #
b0 $
bx %
0&
0'
b0 (
b0 )
bx *
b1 +
b1 ,
b100000000000000000000 -
b100000000000000000000 .
bx /
bx 0
bx 1
bx 2
bx 3
bx 4
bx 5
bx 6
bx 7
bx 8
bx 9
bx :
x;
bx <
bx =
bx >
bx ?
bx @
b0 A
$end

#10000
1!
b11111111111 #
b101111111111 $
1&
b11111111111 (
b101111111111 )
b11111111111 +
b101111111111 ,
b1111111111100000000000000000000 -
b10111111111100000000000000000000 .
b0 :
0;
b1 A

#20000
0!
0&
b10 A

#30000
1!
1&
b0 /
b0 0
b110000001110010000000000000000 1
b0 7
b0 8
b101 9
1;
b11 A

#40000
0!
0&
b100 A

#50000
1!
1&
b0 2
b0 3
b0 4
b0 5
b0 6
b1 :
b0 <
b0 =
b0 >
b0 ?
b0 @
b101 A

#60000
0!
0&
b110 A

#70000
1!
1"
b0 %
1&
1'
b0 *
b0 :
0;
b111 A

#80000
0!
0&
b1000 A

#90000
1!
1&
b1001 A

#100000
0!
0&
b1010 A

#110000
1!
0"
1&
0'
1;
b1011 A

#120000
0!
0&
b1100 A

#130000
1!
1&
b1 :
b1101 A

#140000
0!
0&
b1110 A

#150000
1!
1&
b10 :
b1111 A

#160000
0!
0&
b10000 A

#170000
1!
1&
b11 :
b10001 A

#180000
0!
0&
b10010 A

#190000
1!
1&
b100 :
b10011 A

#200000
0!
0&
b10100 A

#210000
1!
1&
b101 :
b10101 A

#220000
0!
0&
b10110 A

#230000
1!
1&
b110 :
b10111 A

#240000
0!
0&
b11000 A

#250000
1!
1&
b111 :
b11001 A

#260000
0!
0&
b11010 A

#270000
1!
1&
b1000 :
b11011 A

#280000
0!
0&
b11100 A

#290000
1!
1&
b1001 :
b11101 A

#300000
0!
0&
b11110 A

#310000
1!
1&
b1010 :
b11111 A

#320000
0!
0&
b100000 A

#330000
1!
1&
b0 :
0;
b100001 A

#340000
0!
0&
b100010 A

#350000
1!
1&
1;
b100011 A

#360000
0!
0&
b100100 A

#370000
1!
1&
b1 :
b100101 A

#380000
0!
0&
b100110 A

#390000
1!
1&
b10 :
b100111 A

#400000
0!
0&
b101000 A

#410000
1!
1&
b11 :
b101001 A

#420000
0!
0&
b101010 A

#430000
1!
1&
b100 :
b101011 A

#440000
0!
0&
b101100 A

#450000
1!
1&
b101 :
b101101 A

#460000
0!
0&
b101110 A

#470000
1!
1&
b110 :
b101111 A

#480000
0!
0&
b110000 A

#490000
1!
1&
b111 :
b110001 A

#500000
0!
0&
b110010 A

#510000
1!
1&
b1000 :
b110011 A

#520000
0!
0&
b110100 A

#530000
1!
1&
b1001 :
b110101 A

#540000
0!
0&
b110110 A

#550000
1!
1&
b1010 :
b110111 A

#560000
0!
0&
b111000 A

#570000
1!
1&
b0 :
0;
b111001 A

#580000
0!
0&
b111010 A

#590000
1!
1&
1;
b111011 A

#600000
0!
0&
b111100 A

#610000
1!
1&
b1 :
b111101 A

#620000
0!
0&
b111110 A

#630000
1!
1&
b10 :
b111111 A

#640000
0!
0&
b1000000 A

#650000
1!
1&
b11 :
b1000001 A

#660000
0!
0&
b1000010 A

#670000
1!
1&
b100 :
b1000011 A

#680000
0!
0&
b1000100 A

#690000
1!
1&
b101 :
b1000101 A

#700000
0!
0&
b1000110 A

#710000
1!
1&
b110 :
b1000111 A

#720000
0!
0&
b1001000 A

#730000
1!
1&
b111 :
b1001001 A

#740000
0!
0&
b1001010 A

#750000
1!
1&
b1000 :
b1001011 A

#760000
0!
0&
b1001100 A

#770000
1!
1&
b1001 :
b1001101 A

#780000
0!
0&
b1001110 A

#790000
1!
1&
b1010 :
b1001111 A

#800000
0!
0&
b1010000 A

#810000
1!
1&
b0 :
0;
b1010001 A

#820000
0!
0&
b1010010 A

#830000
1!
1&
1;
b1010011 A

#840000
0!
0&
b1010100 A

#850000
1!
1&
b1 :
b1010101 A

#860000
0!
0&
b1010110 A

#870000
1!
1&
b10 :
b1010111 A

#880000
0!
0&
b1011000 A

#890000
1!
1&
b11 :
b1011001 A

#900000
0!
0&
b1011010 A

#910000
1!
1&
b100 :
b1011011 A

#920000
0!
0&
b1011100 A

#930000
1!
1&
b101 :
b1011101 A

#940000
0!
0&
b1011110 A

#950000
1!
1&
b110 :
b1011111 A

#960000
0!
0&
b1100000 A

#970000
1!
1&
b111 :
b1100001 A

#980000
0!
0&
b1100010 A

#990000
1!
1&
b1000 :
b1100011 A

#1000000
0!
0&
b1100100 A
