Lab_4/Lab4.sim/sim_1/behav/xsim/chua_uart_rng_tb.vcd
$date
   Wed Apr 16 00:45:03 2025
$end

$version
  2024.2.0
  $dumpfile ("chua_uart_rng_tb.vcd") 
$end

$timescale
  1ps
$end

$scope module chua_uart_rng_tb $end
$var reg 1 ! sysclk $end
$var reg 1 " rst $end
$var wire 1 # uart_txd_in $end
$var reg 1 $ uart_rxd_out $end
$var reg 10 % uart_frame [9:0] $end
$var integer 32 & bit_count [31:0] $end
$scope module uut $end
$var wire 1 ' sysclk $end
$var wire 1 ( rst $end
$var wire 1 # uart_txd_in $end
$var wire 1 ) uart_rxd_out $end
$var wire 16 * rnd [15:0] $end
$var reg 16 + random_value [15:0] $end
$var reg 1 , tx_start $end
$var reg 8 - tx_data [7:0] $end
$var wire 1 . tx_done $end
$var reg 3 / state [2:0] $end
$var reg 24 0 delay_counter [23:0] $end
$scope module rng_inst $end
$var wire 1 ' sysclk $end
$var wire 1 ( rst $end
$var reg 16 1 rnd [15:0] $end
$var reg 32 2 v1 [31:0] $end
$var reg 32 3 v2 [31:0] $end
$var reg 32 4 iL [31:0] $end
$var wire 32 5 C1_seed [31:0] $end
$var wire 32 6 C2_seed [31:0] $end
$var wire 32 7 L_seed [31:0] $end
$var reg 32 8 dv1 [31:0] $end
$var reg 32 9 dv2 [31:0] $end
$var reg 32 : diL [31:0] $end
$var reg 32 ; diff [31:0] $end
$var reg 32 < term [31:0] $end
$scope module seeds $end
$var wire 32 5 C1_seed [31:0] $end
$var wire 32 6 C2_seed [31:0] $end
$var wire 32 7 L_seed [31:0] $end
$upscope $end
$scope function nonlinear $end
$var reg 32 = nonlinear [31:0] $end
$var reg 32 > x [31:0] $end
$upscope $end
$upscope $end
$scope module uart_tx_inst $end
$var wire 1 ' sysclk $end
$var wire 1 ( rst $end
$var wire 1 ? tx_start $end
$var wire 8 @ tx_data [7:0] $end
$var reg 1 A uart_txd_in $end
$var reg 1 B tx_done $end
$var reg 16 C baud_counter [15:0] $end
$var reg 4 D bit_index [3:0] $end
$var reg 10 E tx_shift [9:0] $end
$var reg 1 F sending $end
$upscope $end
$upscope $end
$upscope $end
$enddefinitions $end

#0
$dumpvars
0!
1"
1#
1$
bx %
b0 &
0'
1(
1)
b0 *
b0 +
0,
b0 -
0.
b0 /
b0 0
b0 1
b10100101101001010000000000000000 2
b1011010010110100000000000000000 3
b10111110111011110000000000000000 4
b10100101101001011010010110100101 5
b1011010010110100101101001011010 6
b11011110101011011011111011101111 7
bx 8
bx 9
bx :
bx ;
bx <
bx =
bx >
0?
b0 @
1A
0B
b0 C
b0 D
b1111111111 E
0F
$end

#10000
1!
1'

#20000
0!
0'

#30000
1!
1'

#40000
0!
0'

#50000
1!
1'

#60000
0!
0'

#70000
1!
1'

#80000
0!
0'

#90000
1!
1'

#100000
0!
0"
0'
0(

#110000
1!
bx1 %
b1 &
1'
1,
b1 /
b10100101101001010000000000010000 2
b1011010010110100000000000100001 3
b10111110111011110000000000111111 4
b11111000100101 8
b1000000010010010 9
b1111010111110110 :
b1001011010010110000000000000000 ;
b11110110101110000 <
b11111111111111111000000000000000 =
b10100101101001010000000000000000 >
1?

#120000
0!
0'

#130000
1!
bx11 %
b10 &
1'
b10000 *
0,
b10 /
b10000 1
b10100101101001010000000000100000 2
b1011010010110100000000001000010 3
b10111110111011110000000001111110 4
b11111000100100 8
b1000000010010011 9
b1111010111110100 :
b1001011010010101111111111101111 ;
b11111111111111111000000000001000 =
b10100101101001010000000000010000 >
0?
b1000000000 E
1F

#140000
0!
0'

#150000
1!
bx111 %
b11 &
1'
b100000 *
b100000 1
b10100101101001010000000000110000 2
b1011010010110100000000001100011 3
b10111110111011110000000010111101 4
b1111010111110010 :
b1001011010010101111111111011110 ;
b11111111111111111000000000010000 =
b10100101101001010000000000100000 >
b1 C

#160000
0!
0'

#170000
1!
bx1111 %
b100 &
1'
b110000 *
b110000 1
b10100101101001010000000001000000 2
b1011010010110100000000010000100 3
b10111110111011110000000011111100 4
b11111000100011 8
b1000000010010100 9
b1111010111110000 :
b1001011010010101111111111001101 ;
b11111111111111111000000000011000 =
b10100101101001010000000000110000 >
b10 C

#180000
0!
0'

#190000
1!
bx11111 %
b101 &
1'
b1000000 *
b1000000 1
b10100101101001010000000001010000 2
b1011010010110100000000010100101 3
b10111110111011110000000100111011 4
b11111000100010 8
b1000000010010101 9
b1111010111101110 :
b1001011010010101111111110111100 ;
b11111111111111111000000000100000 =
b10100101101001010000000001000000 >
b11 C

#200000
0!
0'

#210000
1!
bx111111 %
b110 &
1'
b1010000 *
b1010000 1
b10100101101001010000000001100000 2
b1011010010110100000000011000110 3
b10111110111011110000000101111010 4
b11111000100001 8
b1111010111101100 :
b1001011010010101111111110101011 ;
b11111111111111111000000000101000 =
b10100101101001010000000001010000 >
b100 C

#220000
0!
0'

#230000
1!
bx1111111 %
b111 &
1'
b1100000 *
b1100000 1
b10100101101001010000000001110000 2
b1011010010110100000000011100111 3
b10111110111011110000000110111001 4
b11111000100000 8
b1000000010010110 9
b1111010111101010 :
b1001011010010101111111110011010 ;
b11111111111111111000000000110000 =
b10100101101001010000000001100000 >
b101 C

#240000
0!
0'

#250000
1!
bx11111111 %
b1000 &
1'
b1110000 *
b1110000 1
b10100101101001010000000010000000 2
b1011010010110100000000100001000 3
b10111110111011110000000111111000 4
b1111010111101001 :
b1001011010010101111111110001001 ;
b11111111111111111000000000111000 =
b10100101101001010000000001110000 >
b110 C

#260000
0!
0'

#270000
1!
bx111111111 %
b1001 &
1'
b10000000 *
b10000000 1
b10100101101001010000000010010000 2
b1011010010110100000000100101001 3
b10111110111011110000001000110111 4
b11111000011111 8
b1000000010010111 9
b1111010111100111 :
b1001011010010101111111101111000 ;
b11111111111111111000000001000000 =
b10100101101001010000000010000000 >
b111 C

#280000
0!
0'

#290000
1!
b1111111111 %
b1010 &
1'
b10010000 *
b10010000 1
b10100101101001010000000010100000 2
b1011010010110100000000101001010 3
b10111110111011110000001001110110 4
b11111000011110 8
b1000000010011000 9
b1111010111100101 :
b1001011010010101111111101100111 ;
b11111111111111111000000001001000 =
b10100101101001010000000010010000 >
b1000 C

#300000
0!
0'

#310000
1!
b0 &
1'
b10100000 *
b10100000 1
b10100101101001010000000010110000 2
b1011010010110100000000101101011 3
b10111110111011110000001010110101 4
b11111000011101 8
b1111010111100011 :
b1001011010010101111111101010110 ;
b11111111111111111000000001010000 =
b10100101101001010000000010100000 >
b1001 C

#320000
0!
0'

#330000
1!
b1 &
1'
b10110000 *
b10110000 1
b10100101101001010000000011000000 2
b1011010010110100000000110001100 3
b10111110111011110000001011110100 4
b11111000011100 8
b1000000010011001 9
b1111010111100001 :
b1001011010010101111111101000101 ;
b11111111111111111000000001011000 =
b10100101101001010000000010110000 >
b1010 C

#340000
0!
0'

#350000
1!
b10 &
1'
b11000000 *
b11000000 1
b10100101101001010000000011010000 2
b1011010010110100000000110101101 3
b10111110111011110000001100110011 4
b1000000010011010 9
b1111010111011111 :
b1001011010010101111111100110100 ;
b11111111111111111000000001100000 =
b10100101101001010000000011000000 >
b1011 C

#360000
0!
0'

#370000
1!
b11 &
1'
b11010000 *
b11010000 1
b10100101101001010000000011100000 2
b1011010010110100000000111001110 3
b10111110111011110000001101110010 4
b11111000011011 8
b1111010111011110 :
b1001011010010101111111100100011 ;
b11111111111111111000000001101000 =
b10100101101001010000000011010000 >
b1100 C

#380000
0!
0'

#390000
1!
b100 &
1'
b11100000 *
b11100000 1
b10100101101001010000000011110000 2
b1011010010110100000000111101111 3
b10111110111011110000001110110001 4
b11111000011010 8
b1000000010011011 9
b1111010111011100 :
b1001011010010101111111100010010 ;
b11111111111111111000000001110000 =
b10100101101001010000000011100000 >
b1101 C

#400000
0!
0'

#410000
1!
b101 &
1'
b11110000 *
b11110000 1
b10100101101001010000000100000000 2
b1011010010110100000001000010000 3
b10111110111011110000001111110000 4
b11111000011001 8
b1111010111011010 :
b1001011010010101111111100000001 ;
b11111111111111111000000001111000 =
b10100101101001010000000011110000 >
b1110 C

#420000
0!
0'

#430000
1!
b110 &
1'
b100000000 *
b100000000 1
b10100101101001010000000100010000 2
b1011010010110100000001000110001 3
b10111110111011110000010000101111 4
b11111000011000 8
b1000000010011100 9
b1111010111011000 :
b1001011010010101111111011110000 ;
b11111111111111111000000010000000 =
b10100101101001010000000100000000 >
b1111 C

#440000
0!
0'

#450000
1!
b111 &
1'
b100010000 *
b100010000 1
b10100101101001010000000100100000 2
b1011010010110100000001001010010 3
b10111110111011110000010001101110 4
b1000000010011101 9
b1111010111010110 :
b1001011010010101111111011011111 ;
b11111111111111111000000010001000 =
b10100101101001010000000100010000 >
b10000 C

#460000
0!
0'

#470000
1!
b1000 &
1'
b100100000 *
b100100000 1
b10100101101001010000000100110000 2
b1011010010110100000001001110011 3
b10111110111011110000010010101101 4
b11111000010111 8
b1111010111010100 :
b1001011010010101111111011001110 ;
b11111111111111111000000010010000 =
b10100101101001010000000100100000 >
b10001 C

#480000
0!
0'

#490000
1!
b1001 &
1'
b100110000 *
b100110000 1
b10100101101001010000000101000000 2
b1011010010110100000001010010100 3
b10111110111011110000010011101100 4
b11111000010110 8
b1000000010011110 9
b1111010111010011 :
b1001011010010101111111010111101 ;
b11111111111111111000000010011000 =
b10100101101001010000000100110000 >
b10010 C

#500000
0!
0'

#510000
1!
b1010 &
1'
b101000000 *
b101000000 1
b10100101101001010000000101010000 2
b1011010010110100000001010110101 3
b10111110111011110000010100101011 4
b11111000010101 8
b1000000010011111 9
b1111010111010001 :
b1001011010010101111111010101100 ;
b11111111111111111000000010100000 =
b10100101101001010000000101000000 >
b10011 C

#520000
0!
0'

#530000
1!
b0 &
1'
b101010000 *
b101010000 1
b10100101101001010000000101100000 2
b1011010010110100000001011010110 3
b10111110111011110000010101101010 4
b11111000010100 8
b1111010111001111 :
b1001011010010101111111010011011 ;
b11111111111111111000000010101000 =
b10100101101001010000000101010000 >
b10100 C

#540000
0!
0'

#550000
1!
b1 &
1'
b101100000 *
b101100000 1
b10100101101001010000000101110000 2
b1011010010110100000001011110111 3
b10111110111011110000010110101001 4
b1000000010100000 9
b1111010111001101 :
b1001011010010101111111010001010 ;
b11111111111111111000000010110000 =
b10100101101001010000000101100000 >
b10101 C

#560000
0!
0'

#570000
1!
b10 &
1'
b101110000 *
b101110000 1
b10100101101001010000000110000000 2
b1011010010110100000001100011000 3
b10111110111011110000010111101000 4
b11111000010011 8
b1111010111001011 :
b1001011010010101111111001111001 ;
b11111111111111111000000010111000 =
b10100101101001010000000101110000 >
b10110 C

#580000
0!
0'

#590000
1!
b11 &
1'
b110000000 *
b110000000 1
b10100101101001010000000110010000 2
b1011010010110100000001100111001 3
b10111110111011110000011000100111 4
b11111000010010 8
b1000000010100001 9
b1111010111001001 :
b1001011010010101111111001101000 ;
b11111111111111111000000011000000 =
b10100101101001010000000110000000 >
b10111 C

#600000
0!
0'

#610000
1!
b100 &
1'
b110010000 *
b110010000 1
b10100101101001010000000110100000 2
b1011010010110100000001101011010 3
b10111110111011110000011001100110 4
b11111000010001 8
b1000000010100010 9
b1111010111001000 :
b1001011010010101111111001010111 ;
b11111111111111111000000011001000 =
b10100101101001010000000110010000 >
b11000 C

#620000
0!
0'

#630000
1!
b101 &
1'
b110100000 *
b110100000 1
b10100101101001010000000110110000 2
b1011010010110100000001101111011 3
b10111110111011110000011010100101 4
b11111000010000 8
b1111010111000110 :
b1001011010010101111111001000110 ;
b11111111111111111000000011010000 =
b10100101101001010000000110100000 >
b11001 C

#640000
0!
0'

#650000
1!
b110 &
1'
b110110000 *
b110110000 1
b10100101101001010000000111000000 2
b1011010010110100000001110011100 3
b10111110111011110000011011100100 4
b1000000010100011 9
b1111010111000100 :
b1001011010010101111111000110101 ;
b11111111111111111000000011011000 =
b10100101101001010000000110110000 >
b11010 C

#660000
0!
0'

#670000
1!
b111 &
1'
b111000000 *
b111000000 1
b10100101101001010000000111001111 2
b1011010010110100000001110111101 3
b10111110111011110000011100100011 4
b11111000001111 8
b1000000010100100 9
b1111010111000010 :
b1001011010010101111111000100100 ;
b11111111111111111000000011100000 =
b10100101101001010000000111000000 >
b11011 C

#680000
0!
0'

#690000
1!
b1000 &
1'
b111001111 *
b111001111 1
b10100101101001010000000111011110 2
b1011010010110100000001111011110 3
b10111110111011110000011101100010 4
b11111000001110 8
b1111010111000000 :
b1001011010010101111111000010010 ;
b11111111111111111000000011100111 =
b10100101101001010000000111001111 >
b11100 C

#700000
0!
0'

#710000
1!
b1001 &
1'
b111011110 *
b111011110 1
b10100101101001010000000111101101 2
b1011010010110100000001111111111 3
b10111110111011110000011110100001 4
b11111000001101 8
b1000000010100101 9
b1111010110111110 :
b1001011010010101111111000000000 ;
b11111111111111111000000011101111 =
b10100101101001010000000111011110 >
b11101 C

#720000
0!
0'

#730000
1!
b1010 &
1'
b111101101 *
b111101101 1
b10100101101001010000000111111100 2
b1011010010110100000010000100000 3
b10111110111011110000011111100000 4
b1000000010100110 9
b1111010110111101 :
b1001011010010101111110111101110 ;
b11111111111111111000000011110110 =
b10100101101001010000000111101101 >
b11110 C

#740000
0!
0'

#750000
1!
b0 &
1'
b111111100 *
b111111100 1
b10100101101001010000001000001011 2
b1011010010110100000010001000001 3
b10111110111011110000100000011111 4
b11111000001100 8
b1111010110111011 :
b1001011010010101111110111011100 ;
b11111111111111111000000011111110 =
b10100101101001010000000111111100 >
b11111 C

#760000
0!
0'

#770000
1!
b1 &
1'
b1000001011 *
b1000001011 1
b10100101101001010000001000011010 2
b1011010010110100000010001100010 3
b10111110111011110000100001011110 4
b11111000001011 8
b1000000010100111 9
b1111010110111001 :
b1001011010010101111110111001010 ;
b11111111111111111000000100000101 =
b10100101101001010000001000001011 >
b100000 C

#780000
0!
0'

#790000
1!
b10 &
1'
b1000011010 *
b1000011010 1
b10100101101001010000001000101001 2
b1011010010110100000010010000011 3
b10111110111011110000100010011101 4
b11111000001010 8
b1111010110110111 :
b1001011010010101111110110111000 ;
b11111111111111111000000100001101 =
b10100101101001010000001000011010 >
b100001 C

#800000
0!
0'

#810000
1!
b11 &
1'
b1000101001 *
b1000101001 1
b10100101101001010000001000111000 2
b1011010010110100000010010100100 3
b10111110111011110000100011011100 4
b1000000010101000 9
b1111010110110101 :
b1001011010010101111110110100110 ;
b11111111111111111000000100010100 =
b10100101101001010000001000101001 >
b100010 C

#820000
0!
0'

#830000
1!
b100 &
1'
b1000111000 *
b1000111000 1
b10100101101001010000001001000111 2
b1011010010110100000010011000101 3
b10111110111011110000100100011011 4
b11111000001001 8
b1000000010101001 9
b1111010110110011 :
b1001011010010101111110110010100 ;
b11111111111111111000000100011100 =
b10100101101001010000001000111000 >
b100011 C

#840000
0!
0'

#850000
1!
b101 &
1'
b1001000111 *
b1001000111 1
b10100101101001010000001001010110 2
b1011010010110100000010011100110 3
b10111110111011110000100101011010 4
b11111000001000 8
b1111010110110010 :
b1001011010010101111110110000010 ;
b11111111111111111000000100100011 =
b10100101101001010000001001000111 >
b100100 C

#860000
0!
0'

#870000
1!
b110 &
1'
b1001010110 *
b1001010110 1
b10100101101001010000001001100101 2
b1011010010110100000010100000111 3
b10111110111011110000100110011001 4
b11111000000111 8
b1000000010101010 9
b1111010110110000 :
b1001011010010101111110101110000 ;
b11111111111111111000000100101011 =
b10100101101001010000001001010110 >
b100101 C

#880000
0!
0'

#890000
1!
b111 &
1'
b1001100101 *
b1001100101 1
b10100101101001010000001001110100 2
b1011010010110100000010100101000 3
b10111110111011110000100111011000 4
b1000000010101011 9
b1111010110101110 :
b1001011010010101111110101011110 ;
b11111111111111111000000100110010 =
b10100101101001010000001001100101 >
b100110 C

#900000
0!
0'

#910000
1!
b1000 &
1'
b1001110100 *
b1001110100 1
b10100101101001010000001010000011 2
b1011010010110100000010101001001 3
b10111110111011110000101000010111 4
b11111000000110 8
b1111010110101100 :
b1001011010010101111110101001100 ;
b11111111111111111000000100111010 =
b10100101101001010000001001110100 >
b100111 C

#920000
0!
0'

#930000
1!
b1001 &
1'
b1010000011 *
b1010000011 1
b10100101101001010000001010010010 2
b1011010010110100000010101101010 3
b10111110111011110000101001010110 4
b11111000000101 8
b1000000010101100 9
b1111010110101010 :
b1001011010010101111110100111010 ;
b11111111111111111000000101000001 =
b10100101101001010000001010000011 >
b101000 C

#940000
0!
0'

#950000
1!
b1010 &
1'
b1010010010 *
b1010010010 1
b10100101101001010000001010100001 2
b1011010010110100000010110001011 3
b10111110111011110000101010010101 4
b11111000000100 8
b1111010110101000 :
b1001011010010101111110100101000 ;
b11111111111111111000000101001001 =
b10100101101001010000001010010010 >
b101001 C

#960000
0!
0'

#970000
1!
b0 &
1'
b1010100001 *
b1010100001 1
b10100101101001010000001010110000 2
b1011010010110100000010110101100 3
b10111110111011110000101011010100 4
b1000000010101101 9
b1111010110100111 :
b1001011010010101111110100010110 ;
b11111111111111111000000101010000 =
b10100101101001010000001010100001 >
b101010 C

#980000
0!
0'

#990000
1!
b1 &
1'
b1010110000 *
b1010110000 1
b10100101101001010000001010111111 2
b1011010010110100000010111001101 3
b10111110111011110000101100010011 4
b11111000000011 8
b1000000010101110 9
b1111010110100101 :
b1001011010010101111110100000100 ;
b11111111111111111000000101011000 =
b10100101101001010000001010110000 >
b101011 C

