Lab_4/Lab4.sim/sim_1/behav/xsim/dump.vcd
$date
   Thu Apr 10 18:09:26 2025
$end

$version
  2024.2.0
$end

$timescale
  1ps
$end

$scope module tb_chua_uart_rng $end
$var reg 1 ! sysclk $end
$var reg 1 " rst $end
$var reg 32 # seed_1 [31:0] $end
$var reg 32 $ seed_2 [31:0] $end
$var reg 32 % seed_3 [31:0] $end
$var wire 16 & rnd_out [15:0] $end
$scope module rng_uut $end
$var wire 1 ' sysclk $end
$var wire 1 ( rst $end
$var wire 32 ) C1_seed [31:0] $end
$var wire 32 * C2_seed [31:0] $end
$var wire 32 + L_seed [31:0] $end
$var reg 16 , rnd [15:0] $end
$var reg 32 - v1 [31:0] $end
$var reg 32 . v2 [31:0] $end
$var reg 32 / iL [31:0] $end
$var reg 32 0 dv1 [31:0] $end
$var reg 32 1 dv2 [31:0] $end
$var reg 32 2 diL [31:0] $end
$var reg 32 3 diff [31:0] $end
$var reg 32 4 term [31:0] $end
$scope function nonlinear $end
$var reg 32 5 nonlinear [31:0] $end
$var reg 32 6 x [31:0] $end
$upscope $end
$upscope $end
$upscope $end
$enddefinitions $end

#0
$dumpvars
0!
0"
b1010 #
b1100100 $
b1 %
bx &
0'
0(
b1010 )
b1100100 *
b1 +
bx ,
bx -
bx .
bx /
bx 0
bx 1
bx 2
bx 3
bx 4
bx 5
bx 6
$end

#5000
1!
1'
b0xxxxxxxxxxxxxxxx 0
b0xxxxxxxxxxxxxxxx 1
b0xxxxxxxxxxxxxxxx 2

#10000
0!
b10011100010001 %
0'
b10011100010001 +

#15000
1!
1'

#20000
0!
b100111000100001 %
0'
b100111000100001 +

#25000
1!
1'

#30000
0!
b111010100110001 %
0'
b111010100110001 +

#35000
1!
1'

#40000
0!
1"
b1001110001000001 %
b0 &
0'
1(
b1001110001000001 +
b0 ,
b10100000000000000000 -
b11001000000000000000000 .
b10011100010000010000000000000000 /

#45000
1!
1'

#50000
0!
b1100001101010001 %
0'
b1100001101010001 +

#55000
1!
1'
b11000011010100010000000000000000 /

#60000
0!
b1110101001100001 %
0'
b1110101001100001 +

#65000
1!
1'
b11101010011000010000000000000000 /

#70000
0!
b10001000101110001 %
0'
b10001000101110001 +

#75000
1!
1'
b10001011100010000000000000000 /

#80000
0!
0"
b10011100010000001 %
0'
0(
b10011100010000001 +

#85000
1!
1'
b10100000000001000001 -
b11001000000000000101001 .
b10001011100010000000000011101 /
b1111111111000101 0
b1010000000100100 1
b111000110111100 2
b11111111101001100000000000000000 3
b11111111111111111111110110110011 4
b0 5
b10100000000000000000 6

#90000
0!
b10101111110010001 %
0'
b10101111110010001 +

#95000
1!
b1000001 &
1'
b1000001 ,
b10100000000010000010 -
b11001000000000001010010 .
b10001011100010000000000111010 /
b1111111111000001 0
b1010000000100101 1
b111000110111001 2
b11111111101001100000000000011000 3
b100000 5
b10100000000001000001 6

#100000
0!
b11000011010100001 %
0'
b11000011010100001 +

#105000
1!
b10000010 &
1'
b10000010 ,
b10100000000011000011 -
b11001000000000001111011 .
b10001011100010000000001010111 /
b1111111110111110 0
b111000110110111 2
b11111111101001100000000000110000 3
b1000001 5
b10100000000010000010 6

#110000
0!
b11010110110110001 %
0'
b11010110110110001 +

#115000
1!
b11000011 &
1'
b11000011 ,
b10100000000100000100 -
b11001000000000010100100 .
b10001011100010000000001110100 /
b1111111110111011 0
b111000110110101 2
b11111111101001100000000001001000 3
b1100001 5
b10100000000011000011 6

#120000
0!
1"
b11101010011000001 %
b0 &
0'
1(
b11101010011000001 +
b0 ,
b10100000000000000000 -
b11001000000000000000000 .
b11010100110000010000000000000000 /

#125000
1!
1'

#130000
0!
b11111101111010001 %
0'
b11111101111010001 +

#135000
1!
1'
b11111011110100010000000000000000 /

#140000
0!
b100010001011100001 %
0'
b100010001011100001 +

#145000
1!
1'
b100010111000010000000000000000 /

#150000
0!
b100100100111110001 %
0'
b100100100111110001 +

#155000
1!
1'
b1001001111100010000000000000000 /

#160000
0!
0"
b100111000100000001 %
0'
0(
b100111000100000001 +

#165000
1!
1'
b10100000000001000001 -
b11001000000000000001100 .
b1001001111100010000000000011101 /
b1111111111000101 0
b10111110100100 1
b111000110111100 2
b11111111101001100000000000000000 3
b0 5
b10100000000000000000 6

#170000
0!
b101001100000010001 %
0'
b101001100000010001 +

#175000
1!
b1000001 &
1'
b1000001 ,
b10100000000010000010 -
b11001000000000000011000 .
b1001001111100010000000000111010 /
b1111111111000001 0
b10111110100101 1
b111000110111011 2
b11111111101001100000000000110101 3
b100000 5
b10100000000001000001 6

#180000
0!
b101011111100100001 %
0'
b101011111100100001 +

#185000
1!
b10000010 &
1'
b10000010 ,
b10100000000011000011 -
b11001000000000000100100 .
b1001001111100010000000001010111 /
b1111111110111110 0
b111000110111010 2
b11111111101001100000000001101010 3
b1000001 5
b10100000000010000010 6

#190000
0!
b101110011000110001 %
0'
b101110011000110001 +

#195000
1!
b11000011 &
1'
b11000011 ,
b10100000000100000100 -
b11001000000000000110000 .
b1001001111100010000000001110100 /
b1111111110111011 0
b111000110111001 2
b11111111101001100000000010011111 3
b1100001 5
b10100000000011000011 6

#200000
0!
1"
b110000110101000001 %
b0 &
0'
1(
b110000110101000001 +
b0 ,
b10100000000000000000 -
b11001000000000000000000 .
b1101010000010000000000000000 /

#205000
1!
1'

#210000
0!
b110011010001010001 %
0'
b110011010001010001 +

#215000
1!
1'
b110100010100010000000000000000 /

#220000
0!
b110101101101100001 %
0'
b110101101101100001 +

#225000
1!
1'
b1011011011000010000000000000000 /

#230000
0!
b111000001001110001 %
0'
b111000001001110001 +

#235000
1!
1'
b10000010011100010000000000000000 /

#240000
0!
0"
b111010100110000001 %
0'
0(
b111010100110000001 +

#245000
1!
1'
b10100000000001000001 -
b11001000000000000110001 .
b10000010011100010000000000011101 /
b1111111111000101 0
b1011111100100100 1
b111000110111100 2
b11111111101001100000000000000000 3
b0 5
b10100000000000000000 6

#250000
0!
b111101000010010001 %
0'
b111101000010010001 +

#255000
1!
b1000001 &
1'
b1000001 ,
b10100000000010000010 -
b11001000000000001100010 .
b10000010011100010000000000111010 /
b1111111111000001 0
b1011111100100101 1
b111000110111001 2
b11111111101001100000000000010000 3
b100000 5
b10100000000001000001 6

#260000
0!
b111111011110100001 %
0'
b111111011110100001 +

#265000
1!
b10000010 &
1'
b10000010 ,
b10100000000011000011 -
b11001000000000010010011 .
b10000010011100010000000001010111 /
b1111111110111110 0
b111000110110110 2
b11111111101001100000000000100000 3
b1000001 5
b10100000000010000010 6

#270000
0!
b1000001111010110001 %
0'
b1000001111010110001 +

#275000
1!
b11000011 &
1'
b11000011 ,
b10100000000100000100 -
b11001000000000011000100 .
b10000010011100010000000001110100 /
b1111111110111011 0
b111000110110011 2
b11111111101001100000000000110000 3
b1100001 5
b10100000000011000011 6

#280000
0!
1"
b1000100010111000001 %
b0 &
0'
1(
b1000100010111000001 +
b0 ,
b10100000000000000000 -
b11001000000000000000000 .
b1000101110000010000000000000000 /

#285000
1!
1'

#290000
0!
b1000110110011010001 %
0'
b1000110110011010001 +

#295000
1!
1'
b1101100110100010000000000000000 /

#300000
0!
b1001001001111100001 %
0'
b1001001001111100001 +

#305000
1!
1'
b10010011111000010000000000000000 /

#310000
0!
b1001011101011110001 %
0'
b1001011101011110001 +

#315000
1!
1'
b10111010111100010000000000000000 /

#320000
0!
0"
b1001110001000000001 %
0'
0(
b1001110001000000001 +

#325000
1!
1'
b10100000000001000001 -
b11001000000000000010100 .
b10111010111100010000000000011101 /
b1111111111000101 0
b100111010100100 1
b111000110111100 2
b11111111101001100000000000000000 3
b0 5
b10100000000000000000 6

#330000
0!
b1010000100100010001 %
0'
b1010000100100010001 +

#335000
1!
b1000001 &
1'
b1000001 ,
b10100000000010000010 -
b11001000000000000101000 .
b10111010111100010000000000111010 /
b1111111111000001 0
b100111010100101 1
b111000110111010 2
b11111111101001100000000000101101 3
b100000 5
b10100000000001000001 6

#340000
0!
b1010011000000100001 %
0'
b1010011000000100001 +

#345000
1!
b10000010 &
1'
b10000010 ,
b10100000000011000011 -
b11001000000000000111100 .
b10111010111100010000000001010111 /
b1111111110111110 0
b111000110111001 2
b11111111101001100000000001011010 3
b1000001 5
b10100000000010000010 6

#350000
0!
b1010101011100110001 %
0'
b1010101011100110001 +

#355000
1!
b11000011 &
1'
b11000011 ,
b10100000000100000100 -
b11001000000000001010000 .
b10111010111100010000000001110100 /
b1111111110111011 0
b111000110111000 2
b11111111101001100000000010000111 3
b1100001 5
b10100000000011000011 6

#360000
0!
1"
b1010111111001000001 %
b0 &
0'
1(
b1010111111001000001 +
b0 ,
b10100000000000000000 -
b11001000000000000000000 .
b1111110010000010000000000000000 /

#365000
1!
1'

#370000
0!
b1011010010101010001 %
0'
b1011010010101010001 +

#375000
1!
1'
b10100101010100010000000000000000 /

#380000
0!
b1011100110001100001 %
0'
b1011100110001100001 +

#385000
1!
1'
b11001100011000010000000000000000 /

#390000
0!
b1011111001101110001 %
0'
b1011111001101110001 +

#395000
1!
1'
b11110011011100010000000000000000 /

#400000
0!
0"
b1100001101010000001 %
0'
0(
b1100001101010000001 +

#405000
1!
1'
b10100000000001000001 -
b11001000000000000111001 .
b11110011011100010000000000011101 /
b1111111111000101 0
b1101111000100100 1
b111000110111100 2
b11111111101001100000000000000000 3
b0 5
b10100000000000000000 6

#410000
0!
b1100100000110010001 %
0'
b1100100000110010001 +

#415000
1!
b1000001 &
1'
b1000001 ,
b10100000000010000010 -
b11001000000000001110010 .
b11110011011100010000000000111010 /
b1111111111000001 0
b1101111000100101 1
b111000110111000 2
b11111111101001100000000000001000 3
b100000 5
b10100000000001000001 6

#420000
0!
b1100110100010100001 %
0'
b1100110100010100001 +

#425000
1!
b10000010 &
1'
b10000010 ,
b10100000000011000011 -
b11001000000000010101011 .
b11110011011100010000000001010111 /
b1111111110111110 0
b111000110110101 2
b11111111101001100000000000010000 3
b1000001 5
b10100000000010000010 6

#430000
0!
b1101000111110110001 %
0'
b1101000111110110001 +

#435000
1!
b11000011 &
1'
b11000011 ,
b10100000000100000100 -
b11001000000000011100100 .
b11110011011100010000000001110100 /
b1111111110111011 0
b111000110110010 2
b11111111101001100000000000011000 3
b1100001 5
b10100000000011000011 6

#440000
0!
1"
b1101011011011000001 %
b0 &
0'
1(
b1101011011011000001 +
b0 ,
b10100000000000000000 -
b11001000000000000000000 .
b10110110110000010000000000000000 /

#445000
1!
1'

#450000
0!
b1101101110111010001 %
0'
b1101101110111010001 +

#455000
1!
1'
b11011101110100010000000000000000 /

#460000
0!
b1110000010011100001 %
0'
b1110000010011100001 +

#465000
1!
1'
b100111000010000000000000000 /

#470000
0!
b1110010101111110001 %
0'
b1110010101111110001 +

#475000
1!
1'
b101011111100010000000000000000 /

#480000
0!
0"
b1110101001100000001 %
0'
0(
b1110101001100000001 +

#485000
1!
1'
b10100000000001000001 -
b11001000000000000011100 .
b101011111100010000000000011101 /
b1111111111000101 0
b110110110100100 1
b111000110111100 2
b11111111101001100000000000000000 3
b0 5
b10100000000000000000 6

#490000
0!
b1110111101000010001 %
0'
b1110111101000010001 +

#495000
1!
b1000001 &
1'
b1000001 ,
b10100000000010000010 -
b11001000000000000111000 .
b101011111100010000000000111010 /
b1111111111000001 0
b110110110100101 1
b111000110111010 2
b11111111101001100000000000100101 3
b100000 5
b10100000000001000001 6

#500000
0!
b1111010000100100001 %
0'
b1111010000100100001 +

#505000
1!
b10000010 &
1'
b10000010 ,
b10100000000011000011 -
b11001000000000001010100 .
b101011111100010000000001010111 /
b1111111110111110 0
b111000110111000 2
b11111111101001100000000001001010 3
b1000001 5
b10100000000010000010 6

#510000
0!
b1111100100000110001 %
0'
b1111100100000110001 +

#515000
1!
b11000011 &
1'
b11000011 ,
b10100000000100000100 -
b11001000000000001110000 .
b101011111100010000000001110100 /
b1111111110111011 0
b111000110110111 2
b11111111101001100000000001101111 3
b1100001 5
b10100000000011000011 6

#520000
0!
1"
b1111110111101000001 %
b0 &
0'
1(
b1111110111101000001 +
b0 ,
b10100000000000000000 -
b11001000000000000000000 .
b11101111010000010000000000000000 /

#525000
1!
1'

#530000
0!
b10000001011001010001 %
0'
b10000001011001010001 +

#535000
1!
1'
b10110010100010000000000000000 /

#540000
0!
b10000011110101100001 %
0'
b10000011110101100001 +

#545000
1!
1'
b111101011000010000000000000000 /

#550000
0!
b10000110010001110001 %
0'
b10000110010001110001 +

#555000
1!
1'
b1100100011100010000000000000000 /

#560000
0!
0"
b10001000101110000001 %
0'
0(
b10001000101110000001 +

#565000
1!
1'
b10100000000001000001 -
b11001000000000001000001 .
b1100100011100010000000000011101 /
b1111111111000101 0
b1111110100100100 1
b111000110111100 2
b11111111101001100000000000000000 3
b0 5
b10100000000000000000 6

#570000
0!
b10001011001010010001 %
0'
b10001011001010010001 +

#575000
1!
b1000001 &
1'
b1000001 ,
b10100000000010000010 -
b11001000000000010000010 .
b1100100011100010000000000111010 /
b1111111111000001 0
b1111110100100101 1
b111000110111000 2
b100000 5
b10100000000001000001 6

#580000
0!
b10001101100110100001 %
0'
b10001101100110100001 +

#585000
1!
b10000010 &
1'
b10000010 ,
b10100000000011000011 -
b11001000000000011000011 .
b1100100011100010000000001010111 /
b1111111110111110 0
b111000110110100 2
b1000001 5
b10100000000010000010 6

#590000
0!
b10010000000010110001 %
0'
b10010000000010110001 +

#595000
1!
b11000011 &
1'
b11000011 ,
b10100000000100000100 -
b11001000000000100000100 .
b1100100011100010000000001110100 /
b1111111110111011 0
b111000110110001 2
b1100001 5
b10100000000011000011 6

#600000
0!
1"
b10010010011111000001 %
b0 &
0'
1(
b10010010011111000001 +
b0 ,
b10100000000000000000 -
b11001000000000000000000 .
b100111110000010000000000000000 /

#605000
1!
1'

#610000
0!
b10010100111011010001 %
0'
b10010100111011010001 +

#615000
1!
1'
b1001110110100010000000000000000 /

#620000
0!
b10010111010111100001 %
0'
b10010111010111100001 +

#625000
1!
1'
b1110101111000010000000000000000 /

#630000
0!
b10011001110011110001 %
0'
b10011001110011110001 +

#635000
1!
1'
b10011100111100010000000000000000 /

#640000
0!
0"
b10011100010000000001 %
0'
0(
b10011100010000000001 +

#645000
1!
1'
b10100000000001000001 -
b11001000000000000100100 .
b10011100111100010000000000011101 /
b1111111111000101 0
b1000110010100100 1
b111000110111100 2
b0 5
b10100000000000000000 6

#650000
0!
b10011110101100010001 %
0'
b10011110101100010001 +

#655000
1!
b1000001 &
1'
b1000001 ,
b10100000000010000010 -
b11001000000000001001000 .
b10011100111100010000000000111010 /
b1111111111000001 0
b1000110010100101 1
b111000110111001 2
b11111111101001100000000000011101 3
b100000 5
b10100000000001000001 6

#660000
0!
b10100001001000100001 %
0'
b10100001001000100001 +

#665000
1!
b10000010 &
1'
b10000010 ,
b10100000000011000011 -
b11001000000000001101100 .
b10011100111100010000000001010111 /
b1111111110111110 0
b111000110110111 2
b11111111101001100000000000111010 3
b1000001 5
b10100000000010000010 6

#670000
0!
b10100011100100110001 %
0'
b10100011100100110001 +

#675000
1!
b11000011 &
1'
b11000011 ,
b10100000000100000100 -
b11001000000000010010000 .
b10011100111100010000000001110100 /
b1111111110111011 0
b111000110110101 2
b11111111101001100000000001010111 3
b1100001 5
b10100000000011000011 6

#680000
0!
1"
b10100110000001000001 %
b0 &
0'
1(
b10100110000001000001 +
b0 ,
b10100000000000000000 -
b11001000000000000000000 .
b1100000010000010000000000000000 /

#685000
1!
1'

#690000
0!
b10101000011101010001 %
0'
b10101000011101010001 +

#695000
1!
1'
b10000111010100010000000000000000 /

#700000
0!
b10101010111001100001 %
0'
b10101010111001100001 +

#705000
1!
1'
b10101110011000010000000000000000 /

#710000
0!
b10101101010101110001 %
0'
b10101101010101110001 +

#715000
1!
1'
b11010101011100010000000000000000 /

#720000
0!
0"
b10101111110010000001 %
0'
0(
b10101111110010000001 +

#725000
1!
1'
b10100000000001000001 -
b11001000000000000000111 .
b11010101011100010000000000011101 /
b1111111111000101 0
b1110000100100 1
b111000110111100 2
b11111111101001100000000000000000 3
b0 5
b10100000000000000000 6

#730000
0!
b10110010001110010001 %
0'
b10110010001110010001 +

#735000
1!
b1000001 &
1'
b1000001 ,
b10100000000010000010 -
b11001000000000000001110 .
b11010101011100010000000000111010 /
b1111111111000001 0
b1110000100101 1
b111000110111011 2
b11111111101001100000000000111010 3
b100000 5
b10100000000001000001 6

#740000
0!
b10110100101010100001 %
0'
b10110100101010100001 +

#745000
1!
b10000010 &
1'
b10000010 ,
b10100000000011000011 -
b11001000000000000010101 .
b11010101011100010000000001010111 /
b1111111110111110 0
b11111111101001100000000001110100 3
b1000001 5
b10100000000010000010 6

#750000
0!
b10110111000110110001 %
0'
b10110111000110110001 +

#755000
1!
b11000011 &
1'
b11000011 ,
b10100000000100000100 -
b11001000000000000011100 .
b11010101011100010000000001110100 /
b1111111110111011 0
b111000110111010 2
b11111111101001100000000010101110 3
b1100001 5
b10100000000011000011 6

#760000
0!
1"
b10111001100011000001 %
b0 &
0'
1(
b10111001100011000001 +
b0 ,
b10100000000000000000 -
b11001000000000000000000 .
b10011000110000010000000000000000 /

#765000
1!
1'

#770000
0!
b10111011111111010001 %
0'
b10111011111111010001 +

#775000
1!
1'
b10111111110100010000000000000000 /

#780000
0!
b10111110011011100001 %
0'
b10111110011011100001 +

#785000
1!
1'
b11100110111000010000000000000000 /

#790000
0!
b11000000110111110001 %
0'
b11000000110111110001 +

#795000
1!
1'
b1101111100010000000000000000 /

#800000
0!
0"
b11000011010100000001 %
0'
0(
b11000011010100000001 +

#805000
1!
1'
b10100000000001000001 -
b11001000000000000101100 .
b1101111100010000000000011101 /
b1111111111000101 0
b1010101110100100 1
b111000110111100 2
b11111111101001100000000000000000 3
b0 5
b10100000000000000000 6

#810000
0!
b11000101110000010001 %
0'
b11000101110000010001 +

#815000
1!
b1000001 &
1'
b1000001 ,
b10100000000010000010 -
b11001000000000001011000 .
b1101111100010000000000111010 /
b1111111111000001 0
b1010101110100101 1
b111000110111001 2
b11111111101001100000000000010101 3
b100000 5
b10100000000001000001 6

#820000
0!
b11001000001100100001 %
0'
b11001000001100100001 +

#825000
1!
b10000010 &
1'
b10000010 ,
b10100000000011000011 -
b11001000000000010000100 .
b1101111100010000000001010111 /
b1111111110111110 0
b111000110110111 2
b11111111101001100000000000101010 3
b1000001 5
b10100000000010000010 6

#830000
0!
b11001010101000110001 %
0'
b11001010101000110001 +

#835000
1!
b11000011 &
1'
b11000011 ,
b10100000000100000100 -
b11001000000000010110000 .
b1101111100010000000001110100 /
b1111111110111011 0
b111000110110100 2
b11111111101001100000000000111111 3
b1100001 5
b10100000000011000011 6

#840000
0!
1"
b11001101000101000001 %
b0 &
0'
1(
b11001101000101000001 +
b0 ,
b10100000000000000000 -
b11001000000000000000000 .
b11010001010000010000000000000000 /

#845000
1!
1'

#850000
0!
b11001111100001010001 %
0'
b11001111100001010001 +

#855000
1!
1'
b11111000010100010000000000000000 /

#860000
0!
b11010001111101100001 %
0'
b11010001111101100001 +

#865000
1!
1'
b11111011000010000000000000000 /

#870000
0!
b11010100011001110001 %
0'
b11010100011001110001 +

#875000
1!
1'
b1000110011100010000000000000000 /

#880000
0!
0"
b11010110110110000001 %
0'
0(
b11010110110110000001 +

#885000
1!
1'
b10100000000001000001 -
b11001000000000000001111 .
b1000110011100010000000000011101 /
b1111111111000101 0
b11101100100100 1
b111000110111100 2
b11111111101001100000000000000000 3
b0 5
b10100000000000000000 6

#890000
0!
b11011001010010010001 %
0'
b11011001010010010001 +

#895000
1!
b1000001 &
1'
b1000001 ,
b10100000000010000010 -
b11001000000000000011110 .
b1000110011100010000000000111010 /
b1111111111000001 0
b11101100100101 1
b111000110111011 2
b11111111101001100000000000110010 3
b100000 5
b10100000000001000001 6

#900000
0!
b11011011101110100001 %
0'
b11011011101110100001 +

#905000
1!
b10000010 &
1'
b10000010 ,
b10100000000011000011 -
b11001000000000000101101 .
b1000110011100010000000001010111 /
b1111111110111110 0
b111000110111010 2
b11111111101001100000000001100100 3
b1000001 5
b10100000000010000010 6

#910000
0!
b11011110001010110001 %
0'
b11011110001010110001 +

#915000
1!
b11000011 &
1'
b11000011 ,
b10100000000100000100 -
b11001000000000000111100 .
b1000110011100010000000001110100 /
b1111111110111011 0
b111000110111001 2
b11111111101001100000000010010110 3
b1100001 5
b10100000000011000011 6

#920000
0!
1"
b11100000100111000001 %
b0 &
0'
1(
b11100000100111000001 +
b0 ,
b10100000000000000000 -
b11001000000000000000000 .
b1001110000010000000000000000 /

#925000
1!
1'

#930000
0!
b11100011000011010001 %
0'
b11100011000011010001 +

#935000
1!
1'
b110000110100010000000000000000 /

#940000
0!
b11100101011111100001 %
0'
b11100101011111100001 +

#945000
1!
1'
b1010111111000010000000000000000 /

#950000
0!
b11100111111011110001 %
0'
b11100111111011110001 +

#955000
1!
1'
b1111110111100010000000000000000 /

#960000
0!
0"
b11101010011000000001 %
0'
0(
b11101010011000000001 +

#965000
1!
1'
b10100000000001000001 -
b11001000000000000110100 .
b1111110111100010000000000011101 /
b1111111111000101 0
b1100101010100100 1
b111000110111100 2
b11111111101001100000000000000000 3
b0 5
b10100000000000000000 6

#970000
0!
b11101100110100010001 %
0'
b11101100110100010001 +

#975000
1!
b1000001 &
1'
b1000001 ,
b10100000000010000010 -
b11001000000000001101000 .
b1111110111100010000000000111010 /
b1111111111000001 0
b1100101010100101 1
b111000110111001 2
b11111111101001100000000000001101 3
b100000 5
b10100000000001000001 6

#980000
0!
b11101111010000100001 %
0'
b11101111010000100001 +

#985000
1!
b10000010 &
1'
b10000010 ,
b10100000000011000011 -
b11001000000000010011100 .
b1111110111100010000000001010111 /
b1111111110111110 0
b111000110110110 2
b11111111101001100000000000011010 3
b1000001 5
b10100000000010000010 6

#990000
0!
b11110001101100110001 %
0'
b11110001101100110001 +

#995000
1!
b11000011 &
1'
b11000011 ,
b10100000000100000100 -
b11001000000000011010000 .
b1111110111100010000000001110100 /
b1111111110111011 0
b111000110110011 2
b11111111101001100000000000100111 3
b1100001 5
b10100000000011000011 6

#1000000
0!
1"
b11110100001001000001 %
b0 &
0'
1(
b11110100001001000001 +
b0 ,
b10100000000000000000 -
b11001000000000000000000 .
b1000010010000010000000000000000 /
