Lab_4/Lab4.sim/sim_1/behav/xsim/uart_rng_simulation.vcd
$date
   Mon Apr 14 22:25:06 2025
$end

$version
  2024.2.0
  $dumpfile ("uart_rng_simulation.vcd") 
$end

$timescale
  1ps
$end

$scope module chua_uart_rng_tb $end
$var reg 1 ! sysclk $end
$var reg 1 " rst $end
$var wire 1 # uart_txd_in $end
$var reg 1 $ uart_rxd_out $end
$scope module dut $end
$var wire 1 % sysclk $end
$var wire 1 & rst $end
$var wire 1 # uart_txd_in $end
$var wire 1 ' uart_rxd_out $end
$var wire 16 ( rnd [15:0] $end
$var reg 16 ) random_value [15:0] $end
$var reg 1 * tx_start $end
$var reg 8 + tx_data [7:0] $end
$var wire 1 , tx_done $end
$var reg 3 - state [2:0] $end
$var reg 24 . delay_counter [23:0] $end
$scope module rng_inst $end
$var wire 1 % sysclk $end
$var wire 1 & rst $end
$var reg 16 / rnd [15:0] $end
$var wire 32 0 C1_seed [31:0] $end
$var wire 32 1 C2_seed [31:0] $end
$var wire 32 2 L_seed [31:0] $end
$var reg 32 3 v1 [31:0] $end
$var reg 32 4 v2 [31:0] $end
$var reg 32 5 iL [31:0] $end
$var reg 32 6 dv1 [31:0] $end
$var reg 32 7 dv2 [31:0] $end
$var reg 32 8 diL [31:0] $end
$var reg 32 9 diff [31:0] $end
$var reg 32 : term [31:0] $end
$scope module seeds $end
$var wire 32 0 C1_seed [31:0] $end
$var wire 32 1 C2_seed [31:0] $end
$var wire 32 2 L_seed [31:0] $end
$upscope $end
$scope function nonlinear $end
$var reg 32 ; nonlinear [31:0] $end
$var reg 32 < x [31:0] $end
$upscope $end
$upscope $end
$scope module uart_tx_inst $end
$var wire 1 % sysclk $end
$var wire 1 & rst $end
$var wire 1 = tx_start $end
$var wire 8 > tx_data [7:0] $end
$var reg 1 ? uart_txd_in $end
$var reg 1 @ tx_done $end
$var reg 16 A baud_counter [15:0] $end
$var reg 4 B bit_index [3:0] $end
$var reg 10 C tx_shift [9:0] $end
$var reg 1 D sending $end
$upscope $end
$upscope $end
$scope task uart_receiver $end
$var reg 8 E rx_byte [7:0] $end
$var integer 32 F i [31:0] $end
$upscope $end
$upscope $end
$enddefinitions $end

#0
$dumpvars
0!
1"
1#
1$
0%
1&
1'
b0 (
b0 )
0*
b0 +
0,
b0 -
b0 .
b0 /
b1010010110100100 0
b1011010010110100101101001011010 1
b11011110101011011011111011100100 2
b10100101101001000000000000000000 3
b1011010010110100000000000000000 4
b10111110111001000000000000000000 5
bx 6
bx 7
bx 8
bx 9
bx :
bx ;
bx <
0=
b0 >
1?
0@
b0 A
b0 B
b1111111111 C
0D
bx E
bx F
$end

#10000
1!
1%

#20000
0!
0%

#30000
1!
1%

#40000
0!
0%

#50000
1!
1%

#60000
0!
0%

#70000
1!
1%

#80000
0!
0%

#90000
1!
1%

#100000
0!
0"
0%
0&

#110000
1!
1%
1*
b1 -
b10100101101001000000000000001100 3
b1011010010110100000000000011001 4
b10111110111001000000000000111111 5
b11000101011000 6
b110010001101101 7
b1111010111110110 8
b1001011010010100000000000000000 9
b11110110101101010 :
b0 ;
b10100101101001000000000000000000 <
1=

#120000
0!
0%

#130000
1!
1%
b1100 (
0*
b10 -
b1100 /
b10100101101001000000000000011000 3
b1011010010110100000000000110010 4
b10111110111001000000000001111110 5
b11000101010111 6
b110010001101110 7
b1111010111110100 8
b1001011010010011111111111110011 9
b110 ;
b10100101101001000000000000001100 <
0=
b1000000000 C
1D

#140000
0!
0%

#150000
1!
1%
b11000 (
b11000 /
b10100101101001000000000000100100 3
b1011010010110100000000001001011 4
b10111110111001000000000010111101 5
b11000101010110 6
b1111010111110011 8
b1001011010010011111111111100110 9
b1100 ;
b10100101101001000000000000011000 <
b1 A

#160000
0!
0%

#170000
1!
1%
b100100 (
b100100 /
b10100101101001000000000000110000 3
b1011010010110100000000001100100 4
b10111110111001000000000011111100 5
b110010001101111 7
b1111010111110001 8
b1001011010010011111111111011001 9
b10010 ;
b10100101101001000000000000100100 <
b10 A

#180000
0!
0%

#190000
1!
1%
b110000 (
b110000 /
b10100101101001000000000000111100 3
b1011010010110100000000001111101 4
b10111110111001000000000100111011 5
b11000101010101 6
b110010001110000 7
b1111010111110000 8
b1001011010010011111111111001100 9
b11000 ;
b10100101101001000000000000110000 <
b11 A

#200000
0!
0%

#210000
1!
1%
b111100 (
b111100 /
b10100101101001000000000001001000 3
b1011010010110100000000010010110 4
b10111110111001000000000101111010 5
b1111010111101111 8
b1001011010010011111111110111111 9
b11110 ;
b10100101101001000000000000111100 <
b100 A

#220000
0!
0%

#230000
1!
1%
b1001000 (
b1001000 /
b10100101101001000000000001010100 3
b1011010010110100000000010101111 4
b10111110111001000000000110111001 5
b11000101010100 6
b110010001110001 7
b1111010111101101 8
b1001011010010011111111110110010 9
b100100 ;
b10100101101001000000000001001000 <
b101 A

#240000
0!
0%

#250000
1!
1%
b1010100 (
b1010100 /
b10100101101001000000000001100000 3
b1011010010110100000000011001000 4
b10111110111001000000000111111000 5
b11000101010011 6
b1111010111101100 8
b1001011010010011111111110100101 9
b101010 ;
b10100101101001000000000001010100 <
b110 A

#260000
0!
0%

#270000
1!
1%
b1100000 (
b1100000 /
b10100101101001000000000001101100 3
b1011010010110100000000011100001 4
b10111110111001000000001000110111 5
b110010001110010 7
b1111010111101010 8
b1001011010010011111111110011000 9
b110000 ;
b10100101101001000000000001100000 <
b111 A

#280000
0!
0%

#290000
1!
1%
b1101100 (
b1101100 /
b10100101101001000000000001111000 3
b1011010010110100000000011111010 4
b10111110111001000000001001110110 5
b11000101010010 6
b110010001110011 7
b1111010111101001 8
b1001011010010011111111110001011 9
b110110 ;
b10100101101001000000000001101100 <
b1000 A

#300000
0!
0%

#310000
1!
1%
b1111000 (
b1111000 /
b10100101101001000000000010000100 3
b1011010010110100000000100010011 4
b10111110111001000000001010110101 5
b1111010111101000 8
b1001011010010011111111101111110 9
b111100 ;
b10100101101001000000000001111000 <
b1001 A

#320000
0!
0%

#330000
1!
1%
b10000100 (
b10000100 /
b10100101101001000000000010010000 3
b1011010010110100000000100101100 4
b10111110111001000000001011110100 5
b11000101010001 6
b110010001110100 7
b1111010111100110 8
b1001011010010011111111101110001 9
b1000010 ;
b10100101101001000000000010000100 <
b1010 A

#340000
0!
0%

#350000
1!
1%
b10010000 (
b10010000 /
b10100101101001000000000010011100 3
b1011010010110100000000101000101 4
b10111110111001000000001100110011 5
b11000101010000 6
b110010001110101 7
b1111010111100101 8
b1001011010010011111111101100100 9
b1001000 ;
b10100101101001000000000010010000 <
b1011 A

#360000
0!
0%

#370000
1!
1%
b10011100 (
b10011100 /
b10100101101001000000000010101000 3
b1011010010110100000000101011110 4
b10111110111001000000001101110010 5
b1111010111100011 8
b1001011010010011111111101010111 9
b1001110 ;
b10100101101001000000000010011100 <
b1100 A

#380000
0!
0%

#390000
1!
1%
b10101000 (
b10101000 /
b10100101101001000000000010110100 3
b1011010010110100000000101110111 4
b10111110111001000000001110110001 5
b11000101001111 6
b110010001110110 7
b1111010111100010 8
b1001011010010011111111101001010 9
b1010100 ;
b10100101101001000000000010101000 <
b1101 A

#400000
0!
0%

#410000
1!
1%
b10110100 (
b10110100 /
b10100101101001000000000011000000 3
b1011010010110100000000110010000 4
b10111110111001000000001111110000 5
b1111010111100001 8
b1001011010010011111111100111101 9
b1011010 ;
b10100101101001000000000010110100 <
b1110 A

#420000
0!
0%

#430000
1!
1%
b11000000 (
b11000000 /
b10100101101001000000000011001100 3
b1011010010110100000000110101001 4
b10111110111001000000010000101111 5
b11000101001110 6
b110010001110111 7
b1111010111011111 8
b1001011010010011111111100110000 9
b1100000 ;
b10100101101001000000000011000000 <
b1111 A

#440000
0!
0%

#450000
1!
1%
b11001100 (
b11001100 /
b10100101101001000000000011011000 3
b1011010010110100000000111000010 4
b10111110111001000000010001101110 5
b11000101001101 6
b110010001111000 7
b1111010111011110 8
b1001011010010011111111100100011 9
b1100110 ;
b10100101101001000000000011001100 <
b10000 A

#460000
0!
0%

#470000
1!
1%
b11011000 (
b11011000 /
b10100101101001000000000011100100 3
b1011010010110100000000111011011 4
b10111110111001000000010010101101 5
b1111010111011100 8
b1001011010010011111111100010110 9
b1101100 ;
b10100101101001000000000011011000 <
b10001 A

#480000
0!
0%

#490000
1!
1%
b11100100 (
b11100100 /
b10100101101001000000000011110000 3
b1011010010110100000000111110100 4
b10111110111001000000010011101100 5
b11000101001100 6
b110010001111001 7
b1111010111011011 8
b1001011010010011111111100001001 9
b1110010 ;
b10100101101001000000000011100100 <
b10010 A

#500000
0!
0%

#510000
1!
1%
b11110000 (
b11110000 /
b10100101101001000000000011111100 3
b1011010010110100000001000001101 4
b10111110111001000000010100101011 5
b110010001111010 7
b1111010111011010 8
b1001011010010011111111011111100 9
b1111000 ;
b10100101101001000000000011110000 <
b10011 A

#520000
0!
0%

#530000
1!
1%
b11111100 (
b11111100 /
b10100101101001000000000100001000 3
b1011010010110100000001000100110 4
b10111110111001000000010101101010 5
b11000101001011 6
b1111010111011000 8
b1001011010010011111111011101111 9
b1111110 ;
b10100101101001000000000011111100 <
b10100 A

#540000
0!
0%

#550000
1!
1%
b100001000 (
b100001000 /
b10100101101001000000000100010100 3
b1011010010110100000001000111111 4
b10111110111001000000010110101001 5
b11000101001010 6
b110010001111011 7
b1111010111010111 8
b1001011010010011111111011100010 9
b10000100 ;
b10100101101001000000000100001000 <
b10101 A

#560000
0!
0%

#570000
1!
1%
b100010100 (
b100010100 /
b10100101101001000000000100100000 3
b1011010010110100000001001011000 4
b10111110111001000000010111101000 5
b110010001111100 7
b1111010111010110 8
b1001011010010011111111011010101 9
b10001010 ;
b10100101101001000000000100010100 <
b10110 A

#580000
0!
0%

#590000
1!
1%
b100100000 (
b100100000 /
b10100101101001000000000100101100 3
b1011010010110100000001001110001 4
b10111110111001000000011000100111 5
b11000101001001 6
b1111010111010100 8
b1001011010010011111111011001000 9
b10010000 ;
b10100101101001000000000100100000 <
b10111 A

#600000
0!
0%

#610000
1!
1%
b100101100 (
b100101100 /
b10100101101001000000000100111000 3
b1011010010110100000001010001010 4
b10111110111001000000011001100110 5
b110010001111101 7
b1111010111010011 8
b1001011010010011111111010111011 9
b10010110 ;
b10100101101001000000000100101100 <
b11000 A

#620000
0!
0%

#630000
1!
1%
b100111000 (
b100111000 /
b10100101101001000000000101000100 3
b1011010010110100000001010100011 4
b10111110111001000000011010100101 5
b11000101001000 6
b1111010111010001 8
b1001011010010011111111010101110 9
b10011100 ;
b10100101101001000000000100111000 <
b11001 A

#640000
0!
0%

#650000
1!
1%
b101000100 (
b101000100 /
b10100101101001000000000101010000 3
b1011010010110100000001010111100 4
b10111110111001000000011011100100 5
b11000101000111 6
b110010001111110 7
b1111010111010000 8
b1001011010010011111111010100001 9
b10100010 ;
b10100101101001000000000101000100 <
b11010 A

#660000
0!
0%

#670000
1!
1%
b101010000 (
b101010000 /
b10100101101001000000000101011100 3
b1011010010110100000001011010101 4
b10111110111001000000011100100011 5
b110010001111111 7
b1111010111001111 8
b1001011010010011111111010010100 9
b10101000 ;
b10100101101001000000000101010000 <
b11011 A

#680000
0!
0%

#690000
1!
1%
b101011100 (
b101011100 /
b10100101101001000000000101101000 3
b1011010010110100000001011101110 4
b10111110111001000000011101100010 5
b11000101000110 6
b1111010111001101 8
b1001011010010011111111010000111 9
b10101110 ;
b10100101101001000000000101011100 <
b11100 A

#700000
0!
0%

#710000
1!
1%
b101101000 (
b101101000 /
b10100101101001000000000101110100 3
b1011010010110100000001100000111 4
b10111110111001000000011110100001 5
b110010010000000 7
b1111010111001100 8
b1001011010010011111111001111010 9
b10110100 ;
b10100101101001000000000101101000 <
b11101 A

#720000
0!
0%

#730000
1!
1%
b101110100 (
b101110100 /
b10100101101001000000000110000000 3
b1011010010110100000001100100000 4
b10111110111001000000011111100000 5
b11000101000101 6
b110010010000001 7
b1111010111001010 8
b1001011010010011111111001101101 9
b10111010 ;
b10100101101001000000000101110100 <
b11110 A

#740000
0!
0%

#750000
1!
1%
b110000000 (
b110000000 /
b10100101101001000000000110001100 3
b1011010010110100000001100111001 4
b10111110111001000000100000011111 5
b11000101000100 6
b1111010111001001 8
b1001011010010011111111001100000 9
b11000000 ;
b10100101101001000000000110000000 <
b11111 A

#760000
0!
0%

#770000
1!
1%
b110001100 (
b110001100 /
b10100101101001000000000110011000 3
b1011010010110100000001101010010 4
b10111110111001000000100001011110 5
b110010010000010 7
b1111010111001000 8
b1001011010010011111111001010011 9
b11000110 ;
b10100101101001000000000110001100 <
b100000 A

#780000
0!
0%

#790000
1!
1%
b110011000 (
b110011000 /
b10100101101001000000000110100100 3
b1011010010110100000001101101011 4
b10111110111001000000100010011101 5
b11000101000011 6
b1111010111000110 8
b1001011010010011111111001000110 9
b11001100 ;
b10100101101001000000000110011000 <
b100001 A

#800000
0!
0%

#810000
1!
1%
b110100100 (
b110100100 /
b10100101101001000000000110110000 3
b1011010010110100000001110000100 4
b10111110111001000000100011011100 5
b110010010000011 7
b1111010111000101 8
b1001011010010011111111000111001 9
b11010010 ;
b10100101101001000000000110100100 <
b100010 A

#820000
0!
0%

#830000
1!
1%
b110110000 (
b110110000 /
b10100101101001000000000110111100 3
b1011010010110100000001110011101 4
b10111110111001000000100100011011 5
b11000101000010 6
b110010010000100 7
b1111010111000011 8
b1001011010010011111111000101100 9
b11011000 ;
b10100101101001000000000110110000 <
b100011 A

#840000
0!
0%

#850000
1!
1%
b110111100 (
b110111100 /
b10100101101001000000000111001000 3
b1011010010110100000001110110110 4
b10111110111001000000100101011010 5
b11000101000001 6
b1111010111000010 8
b1001011010010011111111000011111 9
b11011110 ;
b10100101101001000000000110111100 <
b100100 A

#860000
0!
0%

#870000
1!
1%
b111001000 (
b111001000 /
b10100101101001000000000111010100 3
b1011010010110100000001111001111 4
b10111110111001000000100110011001 5
b110010010000101 7
b1111010111000001 8
b1001011010010011111111000010010 9
b11100100 ;
b10100101101001000000000111001000 <
b100101 A

#880000
0!
0%

#890000
1!
1%
b111010100 (
b111010100 /
b10100101101001000000000111100000 3
b1011010010110100000001111101000 4
b10111110111001000000100111011000 5
b11000101000000 6
b110010010000110 7
b1111010110111111 8
b1001011010010011111111000000101 9
b11101010 ;
b10100101101001000000000111010100 <
b100110 A

#900000
0!
0%

#910000
1!
1%
b111100000 (
b111100000 /
b10100101101001000000000111101100 3
b1011010010110100000010000000001 4
b10111110111001000000101000010111 5
b1111010110111110 8
b1001011010010011111110111111000 9
b11110000 ;
b10100101101001000000000111100000 <
b100111 A

#920000
0!
0%

#930000
1!
1%
b111101100 (
b111101100 /
b10100101101001000000000111111000 3
b1011010010110100000010000011010 4
b10111110111001000000101001010110 5
b11000100111111 6
b110010010000111 7
b1111010110111101 8
b1001011010010011111110111101011 9
b11110110 ;
b10100101101001000000000111101100 <
b101000 A

#940000
0!
0%

#950000
1!
1%
b111111000 (
b111111000 /
b10100101101001000000001000000100 3
b1011010010110100000010000110011 4
b10111110111001000000101010010101 5
b11000100111110 6
b1111010110111011 8
b1001011010010011111110111011110 9
b11111100 ;
b10100101101001000000000111111000 <
b101001 A

#960000
0!
0%

#970000
1!
1%
b1000000100 (
b1000000100 /
b10100101101001000000001000010000 3
b1011010010110100000010001001100 4
b10111110111001000000101011010100 5
b110010010001000 7
b1111010110111010 8
b1001011010010011111110111010001 9
b100000010 ;
b10100101101001000000001000000100 <
b101010 A

#980000
0!
0%

#990000
1!
1%
b1000010000 (
b1000010000 /
b10100101101001000000001000011100 3
b1011010010110100000010001100101 4
b10111110111001000000101100010011 5
b11000100111101 6
b110010010001001 7
b1111010110111000 8
b1001011010010011111110111000100 9
b100001000 ;
b10100101101001000000001000010000 <
b101011 A

